<svg xmlns="http://www.w3.org/2000/svg" xmlns:xlink="http://www.w3.org/1999/xlink" width="244" height="210" viewBox="0 0 244 210">
    <defs>
        <path id="a" d="M.141 2.81h5.376v25.746h13.818v4.536H.141V2.81zm23.436 0h19.488v4.452H28.911v8.148h13.272v4.368H28.911v8.862h14.448v4.452H23.577V2.81zm34.44 30.282L46.887 2.81h5.754l7.938 23.688L68.811 2.81h5.46L62.847 33.092h-4.83zM78.807 2.81h19.488v4.452H84.141v8.148h13.272v4.368H84.141v8.862h14.448v4.452H78.807V2.81zm25.536 0h5.376v25.746h13.818v4.536h-19.194V2.81zm45.15 25.872c4.41 0 6.384-2.016 6.384-7.98V2.81h5.376v17.808c0 9.912-4.158 12.936-11.76 12.936-7.56 0-11.76-3.024-11.76-12.936V2.81h5.376v17.892c0 5.964 1.974 7.98 6.384 7.98zm18.018 4.41V2.81h11.424c7.266 0 10.374 3.696 10.374 8.652v.882c0 4.914-3.36 9.114-10.374 9.114h-6.048v11.634h-5.376zm11.172-25.788h-5.796v9.618h5.334c3.528 0 5.67-1.134 5.67-4.662v-.756c0-3.318-2.142-4.2-5.208-4.2zm16.086 27.72v-5.46h5.544v5.46h-5.544zm4.956-9.534h-4.368L194.559.794h5.964l-.798 24.696z"/>
    </defs>
    <g fill="none" fill-rule="evenodd">
        <g transform="translate(24 165)">
            <mask id="b" fill="#fff">
                <use xlink:href="#a"/>
            </mask>
            <use fill="#F6D72D" stroke="#F6D72D" stroke-width="2" xlink:href="#a"/>
            <path fill="#FFF948" d="M-11-2h221v20H-11z" mask="url(#b)" opacity=".4"/>
        </g>
        <g fill="#FFF">
            <path d="M64.776 154.996l.007.007A7 7 0 0 0 58 161.858l-.002-.003a7.002 7.002 0 0 0-5.948-6.777l.188-.187a7.007 7.007 0 0 0 5.651-5.649l.189-.188a7.002 7.002 0 0 0 6.697 5.942zM7.997 189.717l.006.006a7.5 7.5 0 0 0 7.269 7.274l-.007.007a7.5 7.5 0 0 0-7.261 7.261l-.007.007a7.5 7.5 0 0 0-7.355-7.27l-.002-.003a7.5 7.5 0 0 0 7.357-7.282zM237.673 197.717l.005.005a6.15 6.15 0 0 0 5.962 5.965l-.006.006a6.15 6.15 0 0 0-5.955 5.955l-.006.005a6.15 6.15 0 0 0-6.031-5.962l-.002-.002a6.15 6.15 0 0 0 6.033-5.972zM181.34 143.985l-.032.032c-2.541.202-4.568 2.128-4.788 4.546l-.044-.043c-.23-2.299-2.094-4.144-4.473-4.469l-.09-.09c2.586-.31 4.587-2.413 4.587-4.961 0-.057-.001-.114-.003-.17l.006-.006a4.85 4.85 0 0 0-.003.176c0 2.63 2.133 4.786 4.84 4.985z"/>
        </g>
        <g fill="#FFF" transform="translate(22)">
            <circle cx="128" cy="15" r="2"/>
            <circle cx="88" cy="35" r="2"/>
            <circle cx="128" cy="45" r="2"/>
            <circle cx="54" cy="52" r="2"/>
            <circle cx="29" cy="72" r="2"/>
            <circle cx="16" cy="82" r="2"/>
            <circle cx="168" cy="71" r="2"/>
            <circle cx="178" cy="41" r="2"/>
            <circle cx="202" cy="82" r="2"/>
            <circle cx="40" cy="35" r="2"/>
            <circle cx="63" cy="34" r="1"/>
            <circle cx="152" cy="84" r="1"/>
            <circle cx="153" cy="55" r="1"/>
            <circle cx="160" cy="46" r="1"/>
            <circle cx="43" cy="58" r="1"/>
            <circle cx="38" cy="85" r="1"/>
            <circle cx="12" cy="65" r="1"/>
            <circle cx="1" cy="78" r="1"/>
            <circle cx="11" cy="53" r="1"/>
            <circle cx="51" cy="23" r="1"/>
            <circle cx="62" cy="64" r="1"/>
            <circle cx="56" cy="85" r="1"/>
            <circle cx="79" cy="44" r="1"/>
            <circle cx="109" cy="34" r="1"/>
            <circle cx="89" cy="24" r="1"/>
            <circle cx="101" cy="44" r="1"/>
            <circle cx="127" cy="34" r="1"/>
            <circle cx="172" cy="86" r="1"/>
            <circle cx="142" cy="6" r="1"/>
            <circle cx="62" cy="6" r="1"/>
            <circle cx="24" cy="36" r="1"/>
            <circle cx="44" cy="17" r="1"/>
            <circle cx="186" cy="78" r="1"/>
            <circle cx="157" cy="19" r="1"/>
            <circle cx="52" cy="74" r="1"/>
            <circle cx="22" cy="54" r="1"/>
            <circle cx="111" cy="15" r="1"/>
            <circle cx="181" cy="64" r="1"/>
            <circle cx="201" cy="68" r="1"/>
            <circle cx="142" cy="25" r="1"/>
            <circle cx="121" cy="2" r="1"/>
            <circle cx="170" cy="31" r="1"/>
            <circle cx="190" cy="25" r="1"/>
            <circle cx="61" cy="20" r="1"/>
            <circle cx="195" cy="53" r="1"/>
            <circle cx="77" cy="14" r="1"/>
            <circle cx="98" cy="5" r="1"/>
            <circle cx="85" cy="1" r="1"/>
        </g>
        <g>
            <path fill="#28690F" fill-rule="nonzero" d="M163.633 103.667c0 7.88-6.067 12.285-14.831 12.29-2.212.264-19.472.09-19.936.072a56.433 56.433 0 0 0-2.133-.062c-8.945 0-15.033-4.406-15.033-12.3 0-6.595 3.809-20.036 8.436-25.181a9.477 9.477 0 0 1-.236-2.153c0-8.658 9.734-23.233 17.767-23.233 8.032 0 17.766 14.575 17.766 23.233 0 .76-.078 1.478-.235 2.153 4.626 5.145 8.435 18.586 8.435 25.18z"/>
            <path fill="#2FA52A" fill-rule="nonzero" d="M152.704 79.826l-.607-.606.282-.81c.211-.608.321-1.297.321-2.077 0-7.254-8.642-20.5-15.033-20.5-6.392 0-15.034 13.246-15.034 20.5 0 .78.11 1.47.322 2.077l.282.81-.607.606c-4.33 4.325-8.197 17.669-8.197 23.84 0 6.16 4.71 9.567 12.3 9.567.506 0 1.19.021 2.246.065.47.02 17.403.195 19.659-.065 7.57-.012 12.262-3.418 12.262-9.566 0-6.172-3.867-19.516-8.196-23.84z"/>
            <path fill="#28690F" d="M137.376 76.333c.755 0 1.367.612 1.367 1.367v46.467a1.367 1.367 0 1 1-2.733 0V77.7c0-.755.612-1.367 1.366-1.367z"/>
            <g>
                <path fill="#28690F" fill-rule="nonzero" d="M136.3 103.667c0 7.88-6.067 12.285-14.831 12.29-2.213.264-19.472.09-19.936.072a56.433 56.433 0 0 0-2.133-.062c-8.945 0-15.033-4.406-15.033-12.3 0-6.595 3.809-20.036 8.435-25.181a9.477 9.477 0 0 1-.235-2.153c0-8.658 9.734-23.233 17.766-23.233 8.033 0 17.767 14.575 17.767 23.233 0 .76-.079 1.478-.236 2.153 4.627 5.145 8.436 18.586 8.436 25.18z"/>
                <path fill="#2FA52A" fill-rule="nonzero" d="M125.37 79.826l-.607-.606.282-.81c.212-.608.322-1.297.322-2.077 0-7.254-8.642-20.5-15.034-20.5-6.391 0-15.033 13.246-15.033 20.5 0 .78.11 1.47.321 2.077l.282.81-.607.606c-4.33 4.325-8.196 17.669-8.196 23.84 0 6.16 4.709 9.567 12.3 9.567.505 0 1.19.021 2.246.065.469.02 17.402.195 19.659-.065 7.57-.012 12.262-3.418 12.262-9.566 0-6.172-3.867-19.516-8.197-23.84z"/>
                <path fill="#28690F" d="M110.043 76.333c.755 0 1.367.612 1.367 1.367v46.467a1.367 1.367 0 1 1-2.733 0V77.7c0-.755.611-1.367 1.366-1.367z"/>
            </g>
            <g>
                <path fill="#28690F" fill-rule="nonzero" d="M151.333 103.667c0 7.88-6.386 12.285-15.612 12.29-2.328.264-20.496.09-20.985.072a62.522 62.522 0 0 0-2.245-.062c-9.416 0-15.824-4.406-15.824-12.3 0-6.595 4.01-20.036 8.88-25.181a9.024 9.024 0 0 1-.249-2.153c0-8.658 10.247-23.233 18.702-23.233 8.455 0 18.702 14.575 18.702 23.233 0 .76-.083 1.478-.248 2.153 4.87 5.145 8.88 18.586 8.88 25.18z"/>
                <path fill="#45C240" fill-rule="nonzero" d="M139.921 79.826l-.642-.606.298-.81c.224-.608.34-1.297.34-2.077 0-7.254-9.15-20.5-15.917-20.5-6.768 0-15.918 13.246-15.918 20.5 0 .78.117 1.47.34 2.077l.3.81-.643.606c-4.585 4.325-8.679 17.669-8.679 23.84 0 6.16 4.986 9.567 13.024 9.567.534 0 1.26.021 2.377.065.497.02 18.427.195 20.816-.065 8.016-.012 12.983-3.418 12.983-9.566 0-6.172-4.094-19.516-8.679-23.84z"/>
                <path fill="#9EDA48" fill-rule="nonzero" d="M103.359 111.072c-2.542-1.62-3.959-4.122-3.959-7.405 0-6.172 4.094-19.516 8.679-23.84l.642-.607-.298-.81c-.224-.608-.34-1.297-.34-2.077 0-7.254 9.15-20.5 15.917-20.5 2.86 0 6.144 2.365 8.984 5.643-2.095-1.78-4.274-2.91-6.25-2.91-6.768 0-15.918 13.246-15.918 20.5 0 .78.116 1.47.34 2.077l.299.81-.643.607c-4.585 4.324-8.679 17.668-8.679 23.84 0 1.797.425 3.36 1.226 4.672z"/>
                <path fill="#28690F" d="M122.343 104.064v-6.242l-10.203-9.348a1.355 1.355 0 0 1-.076-1.922 1.379 1.379 0 0 1 1.94-.077l8.339 7.64V77.7a1.367 1.367 0 0 1 2.733 0v23.815l10.256-9.564a1.367 1.367 0 1 1 1.864 1.999l-12.12 11.302v18.915a1.367 1.367 0 1 1-2.733 0v-20.094l-.004-.005.004-.004z"/>
            </g>
        </g>
    </g>
</svg>
