<svg xmlns="http://www.w3.org/2000/svg" width="138" height="98" viewBox="0 0 138 98">
    <path fill="#4A7DF3" fill-rule="evenodd" d="M136.335 62.317c1.224-1.574 1.915-2.477 1.581-4.002-1.174-1.305-2.916-3.127-3.912-3.615-4.591-.377-6.938-2.273-9.518-3.449-1.59-.725-2.01-.994-4.385-.671-2.375.322-4.474.322-6.218-.352-4.252-1.644-4.62-1.585-7.578-2.08-2.329-2.107.487-3.093 2.107-6.43 2.085-4.292 3.093-11.407 2.74-14.677-1.31-4.153-1.689-5.346-1.223-8.61 3.437-5.482 9.015-15.445 8.688-15.469-1.368-.098-2.444-.457-3.262-1.128-2.032-1.665-2.633-3.12-6.253 0s-2.114 4.004-5.68 4.004-7.106-.787-9.756.49c-2.65 1.278-2.123 3.625-8.875 3.625H73.877c-.87 0-1.94.537-3.21 1.611-1.26.773-2.527 1.16-3.8 1.16h-9.93c-1.28-.761-2.227-.362-2.844 1.197-.925 2.339-.754 3.323-2.581 3.323-1.828 0-3.403-.617-6.36 1.187-2.959 1.804-11.318 5.742-14.67 6.937-3.35 1.196-5.26 2.15-7.017 1.673-1.757-.477-4.06-1.937-7.243 0C13.038 28.98 1.532 33.174 0 34.117c.53 1.855 1.922 6.663 4.176 14.422 1.305 4.245 3.982 6.832 8.03 7.76 6.073 1.392 9.236 2.683 11.26 4.444 2.023 1.761 5.368 4.495 3.695 8.748-1.672 4.253-3.07 6.47-10.94 12.22-5.645 9.136-7.027 9.067-7.027 14.09 0 .722.076 1.44.206 2.16.212.41 3.743-2.458 11.436-4.187 6.31-1.418 33.525 1.417 41.045-1.478 6.341-2.441 14.577-9.213 21.218-11.692 7.937-2.962 19.495-2.962 26.83-4.023 4.61.146 25.202-11.38 26.406-14.264z"/>
</svg>
