<svg xmlns="http://www.w3.org/2000/svg" width="105" height="145" viewBox="0 0 105 145">
    <path fill="#4A7DF3" fill-rule="evenodd" d="M51.55 144.7c4.248.802 8.564-.126 12.948-2.784 2.81-3.753 4.516-7.436 5.115-11.05.6-3.613 2.317-5.663 5.152-6.15 3.261-3.485 5.286-6.541 6.073-9.168 1.182-3.941 1.686-9.115 5.983-11.962 4.296-2.847 9.478-6.854 8.704-11.134-.517-2.854.554-5.27 3.213-7.246 5.885-11.15 7.192-23.355 3.92-36.615-1.611-6.349-2.024-7.501-1.904-11.893.12-4.392-3.618-10.31-12.376-15.027-8.758-4.716-15.818-8.89-17.557-12.169C69.08 6.223 61.41.674 49.027.184c-12.384-.49-22.108 2.023-28.14 3.63-3.472.924-6.214 1.427-8.333 1.358-.376 4.74-3.7 11.737-5.989 14.852-2.29 3.115-1.346 5.415-.541 10.25.804 4.833-.957 15.71-5.398 21.274 3.767.988 6.569 1.968 8.405 2.94.91.323 2.372.297 4.382-.077 3.017-.561 6.539.63 7.464 1.218.924.588 5.111 2.966 9.649 2.887 2.83 1.802 2.856.343 2.91 3.44.054 3.096-.05 9.392 7.058 12.422 2.768 2.427 2.58 1.379 1.662 5.22-.919 3.843-1.3 3.426.192 11.042 1.492 7.615 1.776 11.703.248 14.188-1.528 2.485-4.937 4.457.172 9.837.938 2.101 1.406 6.693 1.448 9.109.042 2.415.27 3.888 1.941 7.502 1.114 2.41 1.612 5.026 1.493 7.849-.39 2.646.91 4.504 3.9 5.574z"/>
</svg>
