<svg xmlns="http://www.w3.org/2000/svg" width="24" height="24" viewBox="0 0 24 24">
    <g fill="none" fill-rule="evenodd">
        <path fill="#000" stroke="#000" d="M3 5h18v17H3z"/>
        <path fill="#000" d="M18.5 3.5h3v2h-19v-2h3v-2h2v2h9v-2h2v2z"/>
        <path fill="#FFF" d="M14.962 15.77v1.43H9V9.5h5.819v1.43h-4.048v1.672h3.575v1.386h-3.575v1.782z"/>
    </g>
</svg>
