<?xml version="1.0" encoding="utf-8"?>
<!-- Generator: Adobe Illustrator 23.0.1, SVG Export Plug-In . SVG Version: 6.00 Build 0)  -->
<svg version="1.1" id="Layer_1" xmlns="http://www.w3.org/2000/svg" xmlns:xlink="http://www.w3.org/1999/xlink" x="0px" y="0px"
	 viewBox="0 0 24 24" style="enable-background:new 0 0 24 24;" xml:space="preserve">
<style type="text/css">
	.st0{fill-rule:evenodd;clip-rule:evenodd;fill:#CCCCCC;}
	.st1{fill-rule:evenodd;clip-rule:evenodd;fill:#FFFFFF;}
</style>
<g>
	<g transform="translate(100 100)">
		<circle class="st0" cx="-88" cy="-88" r="12"/>
		<path class="st1" d="M-88.7-83.7l-0.7,0.7l-4.6-4.3l0.7-0.7l3.9,3.7l7.7-7.9l0.7,0.6L-88.7-83.7z"/>
	</g>
</g>
</svg>
