<svg xmlns="http://www.w3.org/2000/svg" width="24" height="24" viewBox="0 0 24 24">
    <g fill="#4A7DF3" fill-rule="evenodd">
        <path d="M20.76 13.228l-5.91 5.645-.694-.719 5.913-5.649L14.428 6.6l.719-.695 6.336 6.632-.72.695-.003-.004z"/>
        <path d="M20.5 12v1h-17v-1z"/>
    </g>
</svg>
