<svg xmlns="http://www.w3.org/2000/svg" width="24" height="24" viewBox="0 0 24 24">
    <g fill="none" fill-rule="evenodd" stroke="#000">
        <path d="M19 18.332V10a7 7 0 0 0-14 0v8.332"/>
        <path fill="#000" d="M2.5 14.5a.5.5 0 0 0-.5.5v4a.5.5 0 0 0 .5.5h2A.5.5 0 0 0 5 19v-4a.5.5 0 0 0-.5-.5h-2zM19.5 14.5a.5.5 0 0 0-.5.5v4a.5.5 0 0 0 .5.5h2a.5.5 0 0 0 .5-.5v-4a.5.5 0 0 0-.5-.5h-2z"/>
    </g>
</svg>
