<svg xmlns="http://www.w3.org/2000/svg" width="24" height="24" viewBox="0 0 24 24">
    <path fill="#CCC" fill-rule="evenodd" d="M6.21 11.429l-.694.72 8.632 8.335.695-.72-7.913-7.64 7.641-7.913-.72-.695-7.64 7.913z"/>
</svg>
