<svg xmlns="http://www.w3.org/2000/svg" width="7" height="14" viewBox="0 0 7 14">
    <path fill="#FFF" fill-rule="evenodd" d="M7 2.236H5.728c-.464 0-.778.097-.94.292-.162.194-.243.486-.243.875v1.531H6.92l-.316 2.398H4.545v6.15H2.066v-6.15H0V4.934h2.066V3.168c0-1.005.28-1.784.843-2.338C3.47.277 4.219 0 5.153 0 5.947 0 6.563.032 7 .097v2.14z"/>
</svg>
