<svg xmlns="http://www.w3.org/2000/svg" width="30" height="30" viewBox="0 0 30 30">
    <g fill="none" fill-rule="evenodd">
        <path fill="#364F89" d="M5.396 5.396c7.464-1.061 12.797.009 15.998 3.21 3.201 3.201 4.271 8.534 3.21 15.998-7.464 1.061-12.797-.009-15.998-3.21-3.201-3.201-4.271-8.534-3.21-15.998z"/>
    </g>
</svg>
