<svg xmlns="http://www.w3.org/2000/svg" xmlns:xlink="http://www.w3.org/1999/xlink" width="16" height="15" viewBox="0 0 16 15">
    <defs>
        <path id="a" d="M8 0C3.58 0 0 2.883 0 6.438c0 2.26 1.448 4.247 3.638 5.396L3.033 15l3.46-2.24c.488.076.991.116 1.507.116 4.418 0 8-2.882 8-6.438C16 2.883 12.418 0 8 0z"/>
    </defs>
    <g fill="none" fill-rule="evenodd">
        <mask id="b" fill="#fff">
            <use xlink:href="#a"/>
        </mask>
        <use fill="#001" xlink:href="#a"/>
        <path fill="#FFF" d="M2.278 4.5h1.96c.055 0 .11.02.155.056.045.036.08.086.101.145a.39.39 0 0 1 0 .254.35.35 0 0 1-.06.104.258.258 0 0 1-.196.097H3.57v2.96c0 .094-.03.186-.082.253a.25.25 0 0 1-.195.105H3.23a.251.251 0 0 1-.196-.105.416.416 0 0 1-.081-.253v-2.96h-.675a.249.249 0 0 1-.156-.056.328.328 0 0 1-.1-.145.387.387 0 0 1 0-.254.338.338 0 0 1 .06-.104.255.255 0 0 1 .196-.097zm3.856.118a.325.325 0 0 1 .234-.05.324.324 0 0 1 .249.133.348.348 0 0 1 .088.17l1.417 3.273-.096.161a.336.336 0 0 1-.143.132l-.07.032c-.099.048-.22.04-.314-.023a.34.34 0 0 1-.126-.15l-.272-.629H5.564l-.27.625a.338.338 0 0 1-.126.15.323.323 0 0 1-.315.024l-.069-.033a.332.332 0 0 1-.143-.132.367.367 0 0 1-.022-.331l1.336-3.078.01-.03a.36.36 0 0 1 .041-.1l.026-.037a.333.333 0 0 1 .102-.107zm.199 1.28l-.494 1.137h.988l-.494-1.136zm6.994-1.28a.33.33 0 0 1 .358.07l.055.055a.348.348 0 0 1 .102.253c0 .09-.033.176-.092.242l-.936 1.025 1.123 1.611a.37.37 0 0 1 .029.362.34.34 0 0 1-.102.126l-.06.047a.33.33 0 0 1-.345.031.342.342 0 0 1-.12-.107l-1.046-1.5-.439.482v.81a.36.36 0 0 1-.098.248.325.325 0 0 1-.235.102h-.075a.326.326 0 0 1-.235-.102.363.363 0 0 1-.056-.078l-.042-.08V4.944a.36.36 0 0 1 .098-.247.326.326 0 0 1 .235-.103h.076c.087 0 .172.038.235.103a.359.359 0 0 1 .097.247V6.19L13.215 4.7a.326.326 0 0 1 .112-.08zm-4.704-.025h.075c.087 0 .173.038.235.103a.36.36 0 0 1 .097.247v2.9h1.531a.345.345 0 0 1 .259.118l.132.156-.092.18a.34.34 0 0 1-.299.178h-1.94l-.034-.001a.353.353 0 0 1-.152-.053.327.327 0 0 1-.111-.122l-.034-.057v-3.3a.36.36 0 0 1 .098-.246.325.325 0 0 1 .235-.103z" mask="url(#b)"/>
    </g>
</svg>
