<svg xmlns="http://www.w3.org/2000/svg" width="58" height="102" viewBox="0 0 58 102">
    <path fill="#DDD" fill-rule="nonzero" d="M40.216 32.272c.033.037.063.075.093.116l17.046 23.461a1.5 1.5 0 0 1-2.428 1.763L41.29 38.842l.164 29.147a2 2 0 0 1-2 2.011h-2.54c.056.156.086.325.086.5v30a1.5 1.5 0 0 1-3 0v-30c0-.175.03-.344.085-.5h-10.17c.055.156.085.325.085.5v30a1.5 1.5 0 0 1-3 0v-30c0-.175.03-.344.085-.5h-2.54a2 2 0 0 1-2-2.011l.166-29.236-13.702 18.86a1.5 1.5 0 1 1-2.427-1.764l17.045-23.461c.063-.087.134-.165.21-.234C19.78 27.93 24.049 25 29 25c4.996 0 9.299 2.985 11.216 7.272zM19.551 67h18.897l-.168-29.772a9.28 9.28 0 0 0-18.56 0L19.55 67zM29 21a9 9 0 1 0 0-18 9 9 0 0 0 0 18zm0 3c-6.627 0-12-5.373-12-12S22.373 0 29 0s12 5.373 12 12-5.373 12-12 12z"/>
</svg>
