<svg xmlns="http://www.w3.org/2000/svg" width="24" height="24" viewBox="0 0 24 24">
    <g fill="none" fill-rule="evenodd" stroke="#000">
        <path d="M4.176 18.107c.057-.205.176-.403.27-.604.056-.122.106-.245.188-.362.126-.181.267-.36.421-.535.162-.184.328-.368.526-.54.211-.184.445-.363.7-.53.269-.177.565-.344.866-.505.2-.107.427-.2.645-.296a8.748 8.748 0 0 1 1.586-.502C9.75 14.15 10.39 14 12.023 14c1.505 0 2.519.209 2.971.323a7.67 7.67 0 0 1 1.708.629c.37.197.735.4 1.06.617.293.195.544.409.783.624.21.188.406.382.556.585.203.273.374.553.527.835.11.204.186.414.25.624.073.244.336 1.067-.251 1.225-.365.098-.75.187-1.145.237-.698.088-1.406.156-2.116.209-.596.045-1.201.074-1.803.08-1.382.012-2.765.017-4.146.005-.92-.008-1.84-.051-2.758-.082a8.051 8.051 0 0 1-.632-.042c-.582-.066-1.164-.132-1.74-.21-1.488-.24-1.411-.459-1.11-1.552M12.736 4.313a3.774 3.774 0 0 1 2.29 1.458c.303.404.498.858.626 1.349.132.509.15 1.021.057 1.531-.056.31-.156.617-.281.906a3.627 3.627 0 0 1-1.398 1.628c-.399.257-.83.454-1.299.516-.408.053-.83.094-1.236.047a3.505 3.505 0 0 1-1.463-.532A3.752 3.752 0 0 1 8.686 9.76c-.142-.27-.212-.58-.303-.875-.149-.482-.15-.973-.071-1.468.069-.43.196-.84.41-1.22.28-.501.649-.924 1.116-1.255a3.667 3.667 0 0 1 1.41-.617c.27-.054 1.051-.107 1.488-.012"/>
    </g>
</svg>
