<svg xmlns="http://www.w3.org/2000/svg" xmlns:xlink="http://www.w3.org/1999/xlink" width="1215" height="589" viewBox="0 0 1215 589">
    <defs>
        <path id="a" d="M0 .936h1214.964V588H0z"/>
    </defs>
    <g fill="none" fill-rule="evenodd">
        <g transform="translate(0 .065)">
            <mask id="b" fill="#fff">
                <use xlink:href="#a"/>
            </mask>
            <path fill="#2C79B6" d="M1028.439 475.008l-.007-.104a69.86 69.86 0 0 0 10.992-3.328c21.247-8.418 36.852-26.701 38.235-47.966a46.542 46.542 0 0 0-4.296-22.591l.969-20.143c.632-13.116-4.372-25.955-14.09-36.15-11.937-12.528-29.31-19.426-48.915-19.426-1.041 0-2.022.102-3.04.143-8.72.344-16.613 2.068-23.535 4.932a58.022 58.022 0 0 0-20.988 11.337c-11.737-10.546-27.68-16.412-45.585-16.412-7.994 0-15.282 1.229-21.856 3.354-10.792 1.835-20.568 5.989-29.233 12.36-12.167-10.16-29.46-16.241-49.63-16.241-13.448 0-26.19 3.309-36.978 9.33-9.914-23.477-33.323-40.28-60.898-41.437l85.656-75.55 24.459 42.804L939.085.936l-255.968 113.69 32.348 25.655-174.896 114.392L443.92 7.632 96.82 97.92 0 483.157h39.534L201.447 588l1013.517-6.231-186.525-106.761z" mask="url(#b)"/>
        </g>
        <path fill="#0F1834" d="M979.202 486.617l-4.893-3.146 37.314-19.08c.643.02 1.27.063 1.926.066h.068c5.809 0 11.42-.897 16.702-2.462 19.384-5.745 34.042-21.045 35.214-39.055.833-13.721-6.25-24.308-14.8-31.018h10.907l.557-11.565c.469-9.763-3.348-19.417-10.75-27.184-8.282-8.692-20.003-13.995-33.467-15.31a68.169 68.169 0 0 0-6.653-.347c-1.261 0-2.492.05-3.71.12-1.304-.084-2.586-.238-3.92-.238-16.948 0-31.206 6.719-41.227 19.435-.196.249-.365.517-.553.772-1.096-1.527-2.274-3.021-3.618-4.432-9.621-10.098-23.87-15.657-40.12-15.657-.46 0-.896.038-1.35.047-2.327-.196-4.684-.331-7.103-.331-15.022 0-28.143 4.42-39.005 13.138a48.525 48.525 0 0 0-5.776 5.49c-9.594-11.705-26.507-18.871-47.484-18.871-.826 0-1.637.088-2.458.119-.317-.004-.618-.045-.936-.045-16.266 0-30.258 5.584-40.838 16.126-.81-7.517-3.29-14.508-7.291-20.797-9.773-16.463-28.205-27.622-49.376-27.622h-26.6l1.686-8.862c10.225-11.08 114.1-108.366 114.1-108.366l23.128 29.435 70.958-175.03-186.067 79.368 31.537 21.55-218.13 150.852L423.628 38.794 108.785 121.84 19.43 465.067l27.857-1.052 149.275 98.816 944.528 1.05-161.89-77.264z"/>
        <path fill="#FEFEFE" d="M335.818 438.83H57.593l83.397-302.053 265.611-67.98 105.122 271.218 274.721-206.041-29.434-10.512 115.635-54.664-46.254 114.934-13.316-28.734-292.24 289.439-178.009-309.062-121.24 63.074-12.616 42.75 83.397 3.505.701 62.372H187.244l-17.52 66.578 163.991 2.803z"/>
        <path fill="#D1D1D3" d="M151.503 384.166l182.852 11.24-.64-18.949-163.991-2.803 17.52-66.578h-10.512zM185.142 269.232l107.556 4.926-.331-29.454-83.397-3.505 12.615-42.75 121.24-63.073 178.009 309.06L813.076 155l13.315 28.733 46.254-114.934-350.41 330.787-161.888-290.84L210.37 183.03z"/>
        <path fill="#FEFEFE" d="M217.567 492.233c-2.37-.028-4.751-.041-7.145-.041H196.53v15.835h6.528c2.273 0 4.558-.012 6.855-.041 2.297-.029 4.582-.084 6.856-.17a368.38 368.38 0 0 0 6.527-.293v8.255c-2.03-.057-4.195-.099-6.492-.128-2.297-.026-4.606-.054-6.927-.083a592.704 592.704 0 0 0-6.892-.042h-6.455v12.72c0 4.21.12 8.452.363 12.718a27.777 27.777 0 0 0-2.503-.505 14.84 14.84 0 0 0-2.213-.168c-.724 0-1.463.042-2.212.125-.75.085-1.584.239-2.503.465.484-9.379.737-18.742.762-28.093.024-9.35-.157-18.713-.544-28.093 5.803 0 11.908-.012 18.317-.042 6.406-.026 12.512-.096 18.315-.21v7.918a497.25 497.25 0 0 0-6.746-.127M252.675 520.579c0-4.55-.943-8.128-2.829-10.74-1.886-2.611-4.425-3.917-7.616-3.917-3.386 0-6.057 1.306-8.016 3.917-1.959 2.612-2.938 6.19-2.938 10.74 0 4.437.99 7.975 2.974 10.614 1.982 2.639 4.594 3.958 7.835 3.958 3.336 0 5.936-1.32 7.798-3.958 1.86-2.64 2.792-6.177 2.792-10.614m8.052 0c0 3.146-.46 6.038-1.378 8.676-.92 2.64-2.213 4.915-3.882 6.824a17.846 17.846 0 0 1-5.91 4.463c-2.275 1.067-4.789 1.6-7.545 1.6-2.709 0-5.21-.546-7.507-1.642a18.224 18.224 0 0 1-5.949-4.505c-1.668-1.91-2.986-4.184-3.953-6.824-.968-2.64-1.45-5.475-1.45-8.508 0-3.144.471-6.036 1.413-8.675.943-2.64 2.273-4.93 3.99-6.867a18.643 18.643 0 0 1 6.057-4.548c2.321-1.095 4.86-1.643 7.617-1.643 2.658 0 5.125.548 7.398 1.643a17.974 17.974 0 0 1 5.876 4.506c1.644 1.91 2.925 4.199 3.845 6.866.918 2.668 1.378 5.546 1.378 8.634M280.021 507.354c-2.467 1.347-4.498 3.706-6.094 7.075-.097 4.437-.097 8.86 0 13.267.097 4.41.291 8.832.58 13.268a25.03 25.03 0 0 0-2.357-.506 12.767 12.767 0 0 0-2.03-.169c-.653 0-1.332.056-2.032.17-.7.11-1.486.28-2.357.505.386-6.795.591-13.66.616-20.596.024-6.934-.23-13.772-.762-20.51.92.167 1.656.308 2.212.42a8.02 8.02 0 0 0 1.597.168c.508 0 1.052-.042 1.632-.126.58-.084 1.33-.21 2.248-.379.097.9.158 1.783.182 2.654.023.87.036 1.84.036 2.905 2.031-3.144 4.22-5.109 6.565-5.896 2.345-.786 5.065-.87 8.16-.252v8.34c-2.998-1.573-5.73-1.686-8.196-.338M343.926 540.626a278.38 278.38 0 0 0-9.756 0 6053.6 6053.6 0 0 0-9.54.17c-3.094.054-5.947.083-8.558.083.192-4.436.35-9.04.471-13.815.12-4.772.192-9.56.217-14.36a572.44 572.44 0 0 0-.108-14.32 301.838 301.838 0 0 0-.58-13.69h18.315c6.262 0 12.344-.084 18.245-.252v8.17a426.53 426.53 0 0 0-13.748-.294c-4.764-.028-9.369-.043-13.817-.043v15.416c4.255 0 8.668-.013 13.236-.042 4.572-.028 8.96-.098 13.166-.21v8.17a650.433 650.433 0 0 0-13.166-.21c-4.568-.028-8.981-.043-13.236-.043v17.858c4.496 0 9.162-.028 13.998-.084 4.837-.056 9.478-.14 13.928-.253v8.171a144.44 144.44 0 0 0-9.067-.422M366.776 540.964c-.92-.226-1.73-.395-2.43-.506a12.782 12.782 0 0 0-2.032-.169c-.653 0-1.33.056-2.03.169a29.82 29.82 0 0 0-2.43.506c.53-9.266.797-18.672.797-28.219s-.267-18.953-.797-28.219c.869.226 1.668.394 2.393.506.725.113 1.414.168 2.067.168.653 0 1.342-.055 2.068-.168.726-.112 1.523-.28 2.394-.506a386.041 386.041 0 0 0-1.017 28.219c0 9.547.338 18.953 1.017 28.219M395.065 507.565c-1.355-1.32-3.12-1.98-5.296-1.98-4.305 0-7.35 2.584-9.14 7.75h16.975c-.339-2.527-1.186-4.45-2.539-5.77zm-15.378 12.255c0 2.304.217 4.41.652 6.318.436 1.91 1.125 3.553 2.067 4.928a9.64 9.64 0 0 0 3.664 3.2c1.498.759 3.336 1.138 5.513 1.138 2.223 0 4.267-.406 6.13-1.221 1.86-.813 3.927-2.232 6.201-4.254v8.087c-2.224 1.46-4.377 2.512-6.456 3.159-2.08.644-4.377.968-6.89.968-2.855 0-5.44-.492-7.763-1.474a16.733 16.733 0 0 1-5.984-4.253c-1.668-1.853-2.95-4.072-3.844-6.655-.895-2.583-1.342-5.476-1.342-8.677 0-3.256.435-6.246 1.305-8.97.871-2.724 2.104-5.067 3.7-7.034 1.596-1.965 3.493-3.481 5.694-4.55 2.2-1.065 4.606-1.6 7.217-1.6 2.95 0 5.43.507 7.436 1.517a12.487 12.487 0 0 1 4.86 4.296c1.233 1.853 2.114 4.058 2.647 6.613.532 2.556.8 5.377.8 8.464h-25.607zM430.536 541.216c-1.693.617-3.627.926-5.803.926-2.611 0-5.03-.534-7.254-1.6a17.288 17.288 0 0 1-5.767-4.464c-1.62-1.909-2.877-4.17-3.771-6.782-.895-2.61-1.342-5.488-1.342-8.634 0-3.088.459-5.966 1.378-8.633.917-2.667 2.2-4.97 3.844-6.908a17.838 17.838 0 0 1 5.84-4.549c2.249-1.094 4.679-1.643 7.29-1.643 1.692 0 3.3.184 4.823.55 1.524.364 3.3.997 5.332 1.894v9.013c-1.79-1.74-3.362-2.919-4.715-3.538a10.373 10.373 0 0 0-4.353-.926c-1.692 0-3.227.351-4.606 1.052-1.377.703-2.563 1.7-3.554 2.991-.991 1.292-1.765 2.836-2.321 4.632-.556 1.798-.834 3.792-.834 5.981 0 4.437 1.016 7.99 3.046 10.657 2.032 2.667 4.739 4 8.125 4 1.692 0 3.31-.365 4.86-1.095 1.547-.729 3.288-2.049 5.223-3.959v8.087c-1.935 1.347-3.748 2.33-5.441 2.948M452.117 507.186a202.877 202.877 0 0 0-5.839-.085c0 .169-.013.8-.036 1.896a737.436 737.436 0 0 1-.109 4.043c-.049 1.6-.085 3.369-.109 5.307-.026 1.938-.013 3.805.036 5.6.047 1.799.12 3.427.218 4.887.096 1.46.241 2.556.435 3.285.435 1.46 1.099 2.359 1.995 2.696.894.336 1.873.365 2.938.084 1.062-.28 2.103-.758 3.118-1.432 1.016-.674 1.838-1.292 2.466-1.853v7.665c-2.078 1.347-4.231 2.232-6.455 2.653-2.224.422-4.244.295-6.057-.38-1.814-.672-3.312-1.992-4.497-3.957-1.186-1.966-1.777-4.69-1.777-8.172 0-6.008.036-11.961.109-17.857a341.555 341.555 0 0 0-.255-17.858 14.015 14.015 0 0 0 1.923-.336c.7-.17 1.438-.365 2.212-.59a22.032 22.032 0 0 0 2.285-.801 16.246 16.246 0 0 0 1.995-.97 43.608 43.608 0 0 0-.182 2.529c-.024.673-.06 1.32-.108 1.937a42.67 42.67 0 0 0-.109 2.064 92.092 92.092 0 0 0-.036 2.906c1.982 0 3.928-.028 5.839-.085 1.909-.055 3.856-.084 5.839-.084v6.992c-1.983 0-3.93-.027-5.839-.084M479.428 507.354c-2.467 1.347-4.498 3.706-6.094 7.075-.098 4.437-.098 8.86 0 13.267.096 4.41.29 8.832.58 13.268a25.164 25.164 0 0 0-2.357-.506 12.77 12.77 0 0 0-2.031-.169c-.654 0-1.332.056-2.031.17a25.18 25.18 0 0 0-2.358.505c.387-6.795.591-13.66.616-20.596a250.03 250.03 0 0 0-.762-20.51c.918.167 1.656.308 2.213.42a8.013 8.013 0 0 0 1.596.168c.508 0 1.053-.042 1.632-.126.58-.084 1.33-.21 2.248-.379.097.9.157 1.783.183 2.654.022.87.036 1.84.036 2.905 2.03-3.144 4.219-5.109 6.565-5.896 2.344-.786 5.065-.87 8.16-.252v8.34c-3-1.573-5.73-1.686-8.197-.338M501.405 540.964a38.684 38.684 0 0 0-2.466-.506 11.906 11.906 0 0 0-1.96-.169c-.628 0-1.281.056-1.957.169-.678.111-1.5.28-2.466.506a350.404 350.404 0 0 0 0-41.528c1.74.225 3.215.337 4.424.337 1.209 0 2.685-.112 4.425-.337-.29 3.089-.496 6.402-.616 9.94a316.721 316.721 0 0 0-.182 10.824c0 3.678.073 7.285.218 10.823.144 3.539.338 6.853.58 9.941m.726-51.973c0 1.967-.544 3.44-1.633 4.422-1.088.984-2.297 1.474-3.627 1.474-1.33 0-2.538-.49-3.627-1.474-1.088-.982-1.631-2.455-1.631-4.422 0-1.909.543-3.355 1.63-4.339 1.09-.981 2.298-1.473 3.628-1.473s2.539.477 3.627 1.431c1.089.956 1.633 2.416 1.633 4.381M530.856 541.216c-1.693.617-3.627.926-5.803.926-2.61 0-5.03-.534-7.254-1.6a17.274 17.274 0 0 1-5.766-4.464c-1.62-1.909-2.878-4.17-3.772-6.782-.895-2.61-1.342-5.488-1.342-8.634 0-3.088.46-5.966 1.378-8.633.917-2.667 2.2-4.97 3.844-6.908a17.838 17.838 0 0 1 5.84-4.549c2.25-1.094 4.68-1.643 7.29-1.643 1.692 0 3.3.184 4.823.55 1.524.364 3.301.997 5.332 1.894v9.013c-1.79-1.74-3.362-2.919-4.715-3.538a10.373 10.373 0 0 0-4.353-.926c-1.692 0-3.227.351-4.606 1.052-1.377.703-2.563 1.7-3.554 2.991-.99 1.292-1.765 2.836-2.32 4.632-.557 1.798-.835 3.792-.835 5.981 0 4.437 1.016 7.99 3.046 10.657 2.032 2.667 4.74 4 8.125 4 1.692 0 3.311-.365 4.86-1.095 1.547-.729 3.288-2.049 5.223-3.959v8.087c-1.935 1.347-3.748 2.33-5.44 2.948M607.89 484.526c-4.256 13.198-7.787 24.513-10.59 33.947-2.806 9.435-4.836 16.931-6.094 22.491a45.75 45.75 0 0 0-12.403 0c-.58-2.472-1.379-5.574-2.394-9.308a729.635 729.635 0 0 0-3.627-12.804 802.21 802.21 0 0 0-4.824-15.836 1354.757 1354.757 0 0 0-5.984-18.49c1.015.168 1.922.31 2.72.422.798.113 1.56.182 2.284.21.726.029 1.475 0 2.25-.084.772-.084 1.668-.21 2.683-.38.773 3.932 1.68 7.834 2.721 11.709a385.08 385.08 0 0 0 3.3 11.582 753.128 753.128 0 0 0 3.554 11.457 569.09 569.09 0 0 1 3.483 11.329c2.32-7.75 4.63-15.4 6.927-22.954a366.594 366.594 0 0 0 6.202-23.123c1.015.17 1.896.296 2.647.38.75.084 1.488.113 2.212.084a21.264 21.264 0 0 0 2.25-.21c.773-.112 1.668-.254 2.683-.422M630.813 507.565c-1.355-1.32-3.12-1.98-5.296-1.98-4.305 0-7.35 2.584-9.14 7.75h16.975c-.339-2.527-1.186-4.45-2.539-5.77zm-15.378 12.255c0 2.304.217 4.41.653 6.318.435 1.91 1.124 3.553 2.066 4.928a9.64 9.64 0 0 0 3.664 3.2c1.498.759 3.336 1.138 5.513 1.138 2.224 0 4.268-.406 6.13-1.221 1.86-.813 3.927-2.232 6.201-4.254v8.087c-2.224 1.46-4.377 2.512-6.456 3.159-2.08.644-4.377.968-6.89.968-2.854 0-5.44-.492-7.762-1.474a16.728 16.728 0 0 1-5.985-4.253c-1.668-1.853-2.95-4.072-3.844-6.655-.895-2.583-1.342-5.476-1.342-8.677 0-3.256.435-6.246 1.305-8.97.871-2.724 2.104-5.067 3.7-7.034 1.596-1.965 3.493-3.481 5.695-4.55 2.2-1.065 4.605-1.6 7.216-1.6 2.95 0 5.43.507 7.436 1.517a12.487 12.487 0 0 1 4.86 4.296c1.233 1.853 2.114 4.058 2.647 6.613.532 2.556.8 5.377.8 8.464h-25.607zM678.18 540.964a31.964 31.964 0 0 0-2.394-.506 12.112 12.112 0 0 0-1.995-.169c-.653 0-1.318.056-1.995.169-.677.111-1.476.28-2.393.506.144-1.573.253-3.061.326-4.465.073-1.403.132-2.919.181-4.549.048-1.628.084-3.495.11-5.601.023-2.106.035-4.675.035-7.707 0-1.517-.036-3.033-.108-4.549-.073-1.517-.327-2.864-.762-4.044-.436-1.178-1.124-2.133-2.068-2.863-.942-.73-2.26-1.096-3.953-1.096-1.74 0-3.3.436-4.678 1.306-1.379.871-2.842 2.261-4.389 4.17 0 4.941.036 9.842.11 14.698.072 4.859.228 9.759.47 14.7a42.04 42.04 0 0 0-2.43-.506 11.267 11.267 0 0 0-1.92-.169c-.63 0-1.284.056-1.96.169-.678.111-1.5.253-2.467.422.773-9.21 1.1-18.575.98-28.093a633.131 633.131 0 0 0-.98-28.177c.92.169 1.728.283 2.43.338a24.27 24.27 0 0 0 1.958.084c.605 0 1.245-.042 1.923-.126a54.585 54.585 0 0 0 2.466-.38 183.044 183.044 0 0 0-.616 9.603c-.122 3.201-.109 6.401.036 9.603 1.886-1.965 3.627-3.298 5.222-4.001 1.597-.702 3.458-1.054 5.586-1.054 2.37 0 4.364.395 5.985 1.18a10.13 10.13 0 0 1 3.952 3.369c1.017 1.461 1.741 3.216 2.177 5.265.435 2.051.653 4.338.653 6.866 0 4.267-.013 8.536-.036 12.803-.025 4.268.156 8.536.544 12.804M695.009 540.964a38.543 38.543 0 0 0-2.466-.506 11.904 11.904 0 0 0-1.958-.169c-.63 0-1.283.056-1.959.169-.678.111-1.499.28-2.466.506a350.404 350.404 0 0 0 0-41.528c1.741.225 3.215.337 4.425.337 1.208 0 2.684-.112 4.424-.337-.29 3.089-.496 6.402-.616 9.94a316.753 316.753 0 0 0-.181 10.824c0 3.678.072 7.285.217 10.823.145 3.539.338 6.853.58 9.941m.726-51.973c0 1.967-.544 3.44-1.632 4.422-1.089.984-2.298 1.474-3.627 1.474-1.331 0-2.539-.49-3.627-1.474-1.089-.982-1.632-2.455-1.632-4.422 0-1.909.543-3.355 1.632-4.339 1.088-.981 2.296-1.473 3.627-1.473 1.329 0 2.538.477 3.627 1.431 1.088.956 1.632 2.416 1.632 4.381M724.46 541.216c-1.693.617-3.627.926-5.803.926-2.611 0-5.03-.534-7.254-1.6a17.274 17.274 0 0 1-5.766-4.464c-1.621-1.909-2.878-4.17-3.772-6.782-.895-2.61-1.342-5.488-1.342-8.634 0-3.088.459-5.966 1.378-8.633.918-2.667 2.2-4.97 3.845-6.908a17.824 17.824 0 0 1 5.839-4.549c2.249-1.094 4.679-1.643 7.29-1.643 1.692 0 3.3.184 4.823.55 1.524.364 3.3.997 5.333 1.894v9.013c-1.791-1.74-3.363-2.919-4.716-3.538a10.372 10.372 0 0 0-4.352-.926c-1.693 0-3.228.351-4.607 1.052-1.377.703-2.563 1.7-3.554 2.991-.991 1.292-1.765 2.836-2.321 4.632-.556 1.798-.834 3.792-.834 5.981 0 4.437 1.016 7.99 3.046 10.657 2.032 2.667 4.739 4 8.125 4 1.692 0 3.312-.365 4.86-1.095 1.547-.729 3.288-2.049 5.223-3.959v8.087c-1.935 1.347-3.748 2.33-5.441 2.948M741.434 540.964a29.995 29.995 0 0 0-2.43-.506 12.779 12.779 0 0 0-2.03-.169c-.654 0-1.332.056-2.032.169a29.82 29.82 0 0 0-2.43.506c.531-9.266.798-18.672.798-28.219s-.267-18.953-.798-28.219c.87.226 1.67.394 2.393.506.726.113 1.415.168 2.068.168.652 0 1.341-.055 2.067-.168.726-.112 1.524-.28 2.394-.506a386.606 386.606 0 0 0-1.016 28.219c0 9.547.338 18.953 1.016 28.219M769.724 507.565c-1.355-1.32-3.12-1.98-5.296-1.98-4.305 0-7.35 2.584-9.14 7.75h16.975c-.339-2.527-1.186-4.45-2.539-5.77zm-15.378 12.255c0 2.304.217 4.41.652 6.318.436 1.91 1.124 3.553 2.067 4.928a9.64 9.64 0 0 0 3.664 3.2c1.498.759 3.336 1.138 5.513 1.138 2.223 0 4.267-.406 6.13-1.221 1.86-.813 3.927-2.232 6.201-4.254v8.087c-2.224 1.46-4.377 2.512-6.456 3.159-2.08.644-4.377.968-6.89.968-2.855 0-5.44-.492-7.763-1.474a16.733 16.733 0 0 1-5.984-4.253c-1.668-1.853-2.95-4.072-3.844-6.655-.895-2.583-1.342-5.476-1.342-8.677 0-3.256.435-6.246 1.305-8.97.871-2.724 2.104-5.067 3.7-7.034 1.596-1.965 3.493-3.481 5.694-4.55 2.2-1.065 4.606-1.6 7.217-1.6 2.95 0 5.43.507 7.436 1.517a12.487 12.487 0 0 1 4.86 4.296c1.233 1.853 2.114 4.058 2.647 6.613.532 2.556.8 5.377.8 8.464h-25.607zM863.515 540.964a34.037 34.037 0 0 0-2.539-.506 13.653 13.653 0 0 0-2.103-.169c-.679 0-1.379.042-2.105.127a23 23 0 0 0-2.538.464c.048-1.18.036-3.187-.036-6.023a466.597 466.597 0 0 0-.4-10.278c-.193-4.013-.435-8.492-.724-13.434-.29-4.942-.606-10.108-.944-15.5a3730.2 3730.2 0 0 0-7.58 22.49 456.88 456.88 0 0 0-6.927 22.745c-1.113-.226-2.128-.338-3.046-.338-.92 0-1.935.112-3.047.338a539.197 539.197 0 0 0-7.145-22.66 2139.118 2139.118 0 0 1-7.508-22.491l-.835 15.079c-.265 4.83-.495 9.238-.689 13.224a446.019 446.019 0 0 0-.398 10.362c-.073 2.919-.086 5.081-.037 6.486-.968-.169-1.814-.311-2.538-.422a13.675 13.675 0 0 0-2.104-.169c-.677 0-1.379.056-2.103.169-.726.111-1.573.28-2.539.506.241-2.696.507-5.658.798-8.887.29-3.229.567-6.571.833-10.024.266-3.453.52-6.95.762-10.487.241-3.539.472-6.95.69-10.235.218-3.285.41-6.373.58-9.266.168-2.892.302-5.404.398-7.539 1.161.168 2.225.295 3.193.38a33.079 33.079 0 0 0 5.766 0 56.106 56.106 0 0 0 3.228-.38 589.2 589.2 0 0 0 6.24 20.217 1044.948 1044.948 0 0 1 6.382 20.132 1850.41 1850.41 0 0 1 6.31-20.217c2.128-6.682 4.28-13.392 6.456-20.132 1.162.168 2.224.295 3.192.38a33.114 33.114 0 0 0 5.767 0c.99-.085 2.067-.212 3.228-.38.097 2.247.218 4.858.362 7.834.145 2.977.327 6.136.545 9.477.217 3.341.458 6.78.725 10.318.265 3.538.532 7.02.798 10.445.265 3.426.544 6.711.835 9.855.29 3.147.555 5.981.797 8.509M889.411 518.473c-1.259.786-2.756 1.446-4.498 1.98a52.476 52.476 0 0 0-5.005 1.81c-1.596.673-2.963 1.517-4.099 2.527-1.136 1.011-1.705 2.331-1.705 3.96 0 1.852.556 3.383 1.67 4.59 1.112 1.208 2.513 1.811 4.207 1.811 1.933 0 3.518-.533 4.751-1.6 1.233-1.066 2.2-2.4 2.901-4 .701-1.6 1.172-3.37 1.415-5.308.241-1.938.363-3.804.363-5.602v-.168zm9.14 22.827c-.92-.168-1.682-.309-2.286-.42a12.703 12.703 0 0 0-1.705-.21c-.53-.03-1.1 0-1.704.083-.606.084-1.34.211-2.212.38-.339-1.18-.569-2.15-.689-2.908-.122-.758-.206-1.697-.254-2.82-2.612 4.491-6.505 6.737-11.679 6.737-1.74 0-3.337-.294-4.787-.884a10.554 10.554 0 0 1-3.736-2.527c-1.04-1.095-1.85-2.414-2.43-3.959-.58-1.544-.87-3.243-.87-5.096 0-2.303.386-4.225 1.16-5.77.773-1.544 1.788-2.836 3.047-3.875 1.256-1.038 2.694-1.896 4.316-2.569a49.043 49.043 0 0 1 5.005-1.769c1.716-.505 3.396-.997 5.041-1.474 1.643-.476 3.12-1.054 4.425-1.727-.097-2.864-.87-4.759-2.32-5.686-1.452-.926-3.338-1.39-5.659-1.39-.87 0-1.68.057-2.43.17-.75.112-1.536.336-2.357.673-.824.337-1.682.787-2.576 1.347a56.936 56.936 0 0 0-3.083 2.106v-8.086c2.032-.954 3.892-1.643 5.586-2.064 1.692-.42 3.53-.632 5.513-.632 4.932 0 8.691 1.221 11.28 3.665 2.586 2.442 3.856 6.557 3.807 12.34a521.96 521.96 0 0 1-.18 6.992 113.884 113.884 0 0 0-.037 6.443c.048 2.106.205 4.211.471 6.318.266 2.105.713 4.308 1.343 6.612zM935.617 540.964a52.63 52.63 0 0 0-2.501-.506 10.874 10.874 0 0 0-1.851-.169c-.58 0-1.196.056-1.85.169-.652.111-1.487.28-2.502.506.048-.956.109-2.304.182-4.044.072-1.74.144-3.649.217-5.727.073-2.078.12-4.226.145-6.444.023-2.219.01-4.297-.036-6.234-.05-1.938-.145-3.65-.291-5.139-.144-1.486-.338-2.539-.58-3.159-1.064-2.582-2.927-3.874-5.585-3.874-3.483 0-6.553 2.135-9.213 6.402a303.89 303.89 0 0 0 .037 14.109c.12 4.633.277 9.337.47 14.11a52.633 52.633 0 0 0-2.501-.506 11.074 11.074 0 0 0-1.887-.169c-.604 0-1.245.056-1.921.169-.68.111-1.524.253-2.54.422.436-6.794.665-13.618.69-20.47.023-6.85-.182-13.674-.617-20.469.87.169 1.62.295 2.249.379.627.084 1.244.126 1.849.126s1.222-.055 1.85-.168a30.73 30.73 0 0 0 2.249-.505l-.217 5.138c1.692-1.965 3.432-3.467 5.222-4.507 1.788-1.038 3.965-1.558 6.529-1.558 2.61 0 4.907.717 6.89 2.149 1.983 1.431 3.362 3.355 4.136 5.769.627 2.022 1.002 4.479 1.124 7.371.12 2.893.145 5.896.072 9.014a1164.24 1164.24 0 0 0-.181 9.349c-.05 3.116.072 5.938.362 8.466M952.446 540.964a38.684 38.684 0 0 0-2.466-.506 11.906 11.906 0 0 0-1.959-.169c-.629 0-1.282.056-1.958.169-.678.111-1.499.28-2.466.506a350.404 350.404 0 0 0 0-41.528c1.741.225 3.215.337 4.424.337 1.209 0 2.685-.112 4.425-.337-.29 3.089-.496 6.402-.616 9.94a316.721 316.721 0 0 0-.182 10.824c0 3.678.073 7.285.218 10.823.145 3.539.338 6.853.58 9.941m.726-51.973c0 1.967-.544 3.44-1.633 4.422-1.088.984-2.297 1.474-3.627 1.474-1.33 0-2.538-.49-3.626-1.474-1.089-.982-1.632-2.455-1.632-4.422 0-1.909.543-3.355 1.632-4.339 1.088-.981 2.296-1.473 3.626-1.473s2.539.477 3.627 1.431c1.089.956 1.633 2.416 1.633 4.381M981.172 518.473c-1.259.786-2.756 1.446-4.498 1.98a52.476 52.476 0 0 0-5.005 1.81c-1.596.673-2.963 1.517-4.099 2.527-1.136 1.011-1.705 2.331-1.705 3.96 0 1.852.556 3.383 1.67 4.59 1.112 1.208 2.513 1.811 4.207 1.811 1.933 0 3.518-.533 4.751-1.6 1.233-1.066 2.2-2.4 2.901-4 .701-1.6 1.172-3.37 1.415-5.308.241-1.938.363-3.804.363-5.602v-.168zm9.14 22.827c-.92-.168-1.682-.309-2.286-.42a12.703 12.703 0 0 0-1.705-.21c-.53-.03-1.1 0-1.704.083-.606.084-1.34.211-2.212.38-.339-1.18-.569-2.15-.689-2.908-.122-.758-.206-1.697-.254-2.82-2.612 4.491-6.505 6.737-11.679 6.737-1.74 0-3.337-.294-4.787-.884a10.554 10.554 0 0 1-3.736-2.527c-1.04-1.095-1.85-2.414-2.43-3.959-.58-1.544-.87-3.243-.87-5.096 0-2.303.386-4.225 1.16-5.77.773-1.544 1.788-2.836 3.047-3.875 1.256-1.038 2.694-1.896 4.316-2.569a49.043 49.043 0 0 1 5.005-1.769c1.716-.505 3.396-.997 5.04-1.474 1.644-.476 3.121-1.054 4.426-1.727-.097-2.864-.87-4.759-2.32-5.686-1.452-.926-3.338-1.39-5.659-1.39-.87 0-1.68.057-2.43.17-.75.112-1.536.336-2.357.673-.824.337-1.682.787-2.576 1.347a56.936 56.936 0 0 0-3.083 2.106v-8.086c2.032-.954 3.892-1.643 5.586-2.064 1.692-.42 3.53-.632 5.513-.632 4.932 0 8.691 1.221 11.28 3.665 2.586 2.442 3.856 6.557 3.807 12.34a521.96 521.96 0 0 1-.18 6.992 113.884 113.884 0 0 0-.037 6.443c.048 2.106.205 4.211.471 6.318.266 2.105.713 4.308 1.343 6.612zM733.05 359.173c0-14.788-12.5-20.775-23.945-20.775H680.76v41.727h28.346c11.444 0 23.944-5.635 23.944-20.952m23.944 0c0 22.887-20.07 42.254-44.72 42.254H680.76v48.064H657.87V316.919h54.403c24.65 0 44.72 19.191 44.72 42.254M833.947 403.717c-2.994 2.463-7.57 3.696-10.914 4.753-7.572 1.76-17.96 3.344-23.418 5.458-6.865 2.817-10.916 6.337-8.802 12.325 2.642 7.92 14.26 5.458 21.83 2.817 9.509-3.347 21.303-11.092 21.303-19.72v-5.633zm2.817 45.247c-.88-1.76-2.288-6.34-2.994-11.62-6.16 6.514-19.718 13.029-31.514 14.26-17.957 2.113-33.275-4.93-35.387-22.534-2.29-16.726 9.33-28.7 23.414-33.452 10.741-3.523 22.712-4.05 29.933-5.81 5.81-1.233 13.73-2.993 13.73-10.035 0-6.515-7.745-10.916-20.773-10.916-12.149 0-21.832 7.218-21.303 16.02h-21.48c-1.937-19.894 18.31-35.74 42.784-35.74 23.768 0 44.014 11.093 44.014 30.988v52.819c0 8.45 2.991 15.844 3.168 16.196l-23.592-.176zM955.969 422.203c-1.055 16.197-19.189 30.105-39.789 30.105-32.219-.175-42.606-23.238-42.957-33.803h21.478c.528 6.34 7.394 14.085 20.422 14.085 11.444 0 17.256-5.28 17.607-9.508.528-4.401-2.289-7.57-7.747-10.035-8.978-3.696-22.007-5.986-30.282-8.978-13.557-5.107-19.718-13.733-18.485-26.234 1.23-13.204 14.611-28.17 37.675-28.17 24.649 0 39.437 15.494 38.734 30.108h-20.776c0-4.58-6.866-10.39-16.55-10.39-9.859 0-16.196 2.818-16.902 8.452-.527 4.93 2.29 7.924 9.684 10.389 7.747 2.112 22.36 4.577 31.692 9.506 8.626 4.227 16.902 12.854 16.196 24.473M1049.117 422.203c-1.055 16.197-19.19 30.105-39.79 30.105-32.218-.175-42.605-23.238-42.957-33.803h21.479c.528 6.34 7.394 14.085 20.422 14.085 11.444 0 17.256-5.28 17.607-9.508.528-4.401-2.29-7.57-7.747-10.035-8.98-3.696-22.007-5.986-30.282-8.978-13.557-5.107-19.718-13.733-18.485-26.234 1.23-13.204 14.61-28.17 37.674-28.17 24.65 0 39.438 15.494 38.735 30.108h-20.776c0-4.58-6.866-10.39-16.55-10.39-9.86 0-16.196 2.818-16.902 8.452-.527 4.93 2.29 7.924 9.684 10.389 7.747 2.112 22.36 4.577 31.692 9.506 8.626 4.227 16.902 12.854 16.196 24.473"/>
    </g>
</svg>
