<svg xmlns="http://www.w3.org/2000/svg" width="12" height="16" viewBox="0 0 12 16">
    <path fill="#4A7DF3" fill-rule="evenodd" d="M6.155 15.852C7.62 11.505 11.973 11.121 12 5.906 12 2.644 9.314 0 6 0S0 2.644 0 5.906c.143 5.207 4.429 5.6 5.837 9.938.076.204.251.209.318.008z"/>
</svg>
